…
[The U.S. Bureau of Labor Statistics](https://www.bls.gov/opub/btn/volume-7/big-data-adds-up.htm) projects that employment in mathematical science and analytics careers will grow by 27.9% from 2016 to 2026. This is much faster than most other occupations and is expected to result in more than 50,000 new jobs. The average annual wage for data scientists and mathematical science occupations is $103,930.

Based on knowing this information, I was curious to see how much Master's degrees have grown already and maybe what we can expect to see in the future.


```r
dsba_per_year <- programs %>% 
  group_by(DS_or_BA, Year_Est) %>% 
  count(name = "Degrees_Per_Year") 

dsba_per_year
```

```
## # A tibble: 46 x 3
## # Groups:   DS_or_BA, Year_Est [46]
##    DS_or_BA Year_Est Degrees_Per_Year
##    <chr>       <int>            <int>
##  1 A            2007                1
##  2 A            2011                1
##  3 A            2012                1
##  4 A            2013                3
##  5 A            2014                9
##  6 A            2015                8
##  7 A            2016                5
##  8 A            2017                2
##  9 A            2018                1
## 10 A            2019                3
## # ... with 36 more rows
```
…
